EESchema Schematic File Version 2
LIBS:Kingbright_Bx56-12
LIBS:Symbols_DCDC-ACDC-Converter_RevC_20Jul2012
LIBS:Symbols_EN60617_13Mar2013
LIBS:Symbols_EN60617-10_HF-Radio_DRAFT_12Sep2013
LIBS:Symbols_ICs-Diskrete_RevD10
LIBS:Symbols_ICs-Opto_RevB_16Sep2013
LIBS:Symbols_Microcontroller_Philips-NXP_RevA_06Oct2013
LIBS:Symbols_Socket-DIN41612_RevA
LIBS:Symbols_Transformer-Diskrete_RevA
LIBS:SymbolsSimilarEN60617+oldDIN617-RevE8
LIBS:74xgxx
LIBS:74xx
LIBS:ac-dc
LIBS:actel
LIBS:adc-dac
LIBS:Altera
LIBS:analog_devices
LIBS:analog_switches
LIBS:atmel
LIBS:audio
LIBS:battery_management
LIBS:bbd
LIBS:brooktre
LIBS:cmos_ieee
LIBS:cmos4000
LIBS:conn
LIBS:contrib
LIBS:cypress
LIBS:dc-dc
LIBS:device
LIBS:digital-audio
LIBS:diode
LIBS:display
LIBS:dsp
LIBS:elec-unifil
LIBS:ESD_Protection
LIBS:ftdi
LIBS:gennum
LIBS:graphic
LIBS:hc11
LIBS:intel
LIBS:interface
LIBS:ir
LIBS:Lattice
LIBS:linear
LIBS:logo
LIBS:maxim
LIBS:memory
LIBS:microchip
LIBS:microchip_dspic33dsc
LIBS:microchip_pic10mcu
LIBS:microchip_pic12mcu
LIBS:microchip_pic16mcu
LIBS:microchip_pic18mcu
LIBS:microchip_pic32mcu
LIBS:microcontrollers
LIBS:motor_drivers
LIBS:motorola
LIBS:msp430
LIBS:nordicsemi
LIBS:nxp_armmcu
LIBS:onsemi
LIBS:opto
LIBS:Oscillators
LIBS:philips
LIBS:power
LIBS:Power_Management
LIBS:powerint
LIBS:pspice
LIBS:references
LIBS:regul
LIBS:relays
LIBS:rfcom
LIBS:sensors
LIBS:silabs
LIBS:siliconi
LIBS:stm8
LIBS:stm32
LIBS:supertex
LIBS:switches
LIBS:texas
LIBS:transf
LIBS:transistors
LIBS:ttl_ieee
LIBS:valves
LIBS:video
LIBS:Worldsemi
LIBS:Xicor
LIBS:xilinx
LIBS:Zilog
LIBS:allegro
LIBS:bosch
LIBS:intersil
LIBS:leds
LIBS:mechanical
LIBS:microchip_pic24mcu
LIBS:modules
LIBS:motors
LIBS:nxp
LIBS:triac_thyristor
LIBS:wiznet
LIBS:zetex
LIBS:Синхромер-cache
EELAYER 25 0
EELAYER END
$Descr A4 11693 8268
encoding utf-8
Sheet 1 1
Title "Синхромер"
Date "2017-03-17"
Rev ""
Comp ""
Comment1 ""
Comment2 "Глушко И.А."
Comment3 "Бравиков Д.Г."
Comment4 "Бравиков Д.Г."
$EndDescr
$Comp
L R R10
U 1 1 58CBFF32
P 2700 4300
F 0 "R10" H 2600 4150 50  0000 C CNN
F 1 "150" V 2700 4300 50  0000 C CNN
F 2 "Resistors_SMD:R_0805" V 2630 4300 50  0001 C CNN
F 3 "" H 2700 4300 50  0000 C CNN
	1    2700 4300
	-1   0    0    1   
$EndComp
$Comp
L R R6
U 1 1 58CBFFA5
P 2550 4300
F 0 "R6" H 2500 4150 50  0000 C CNN
F 1 "150" V 2550 4300 50  0000 C CNN
F 2 "Resistors_SMD:R_0805" V 2480 4300 50  0001 C CNN
F 3 "" H 2550 4300 50  0000 C CNN
	1    2550 4300
	-1   0    0    1   
$EndComp
$Comp
L R R5
U 1 1 58CC000C
P 2400 4300
F 0 "R5" H 2350 4150 50  0000 C CNN
F 1 "150" V 2400 4300 50  0000 C CNN
F 2 "Resistors_SMD:R_0805" V 2330 4300 50  0001 C CNN
F 3 "" H 2400 4300 50  0000 C CNN
	1    2400 4300
	-1   0    0    1   
$EndComp
$Comp
L R R19
U 1 1 58CC0046
P 7650 2050
F 0 "R19" V 7730 2050 50  0000 C CNN
F 1 "300" V 7650 2050 50  0000 C CNN
F 2 "Resistors_SMD:R_0805" V 7580 2050 50  0001 C CNN
F 3 "" H 7650 2050 50  0000 C CNN
	1    7650 2050
	1    0    0    -1  
$EndComp
$Comp
L R R20
U 1 1 58CC0087
P 7850 2050
F 0 "R20" V 7930 2050 50  0000 C CNN
F 1 "300" V 7850 2050 50  0000 C CNN
F 2 "Resistors_SMD:R_0805" V 7780 2050 50  0001 C CNN
F 3 "" H 7850 2050 50  0000 C CNN
	1    7850 2050
	1    0    0    -1  
$EndComp
$Comp
L LED-RESCUE-Си_хро__р D2
U 1 1 58CC00EC
P 7850 1650
F 0 "D2" V 7800 1500 50  0000 C CNN
F 1 "LED" V 7900 1500 50  0000 C CNN
F 2 "LEDs:LED_D2.0mm_W4.8mm_H2.5mm_FlatTop" H 7850 1650 50  0001 C CNN
F 3 "" H 7850 1650 50  0000 C CNN
	1    7850 1650
	0    -1   1    0   
$EndComp
$Comp
L LED-RESCUE-Си_хро__р D1
U 1 1 58CC014F
P 7650 1650
F 0 "D1" V 7600 1800 50  0000 C CNN
F 1 "LED" V 7700 1800 50  0000 C CNN
F 2 "LEDs:LED_D2.0mm_W4.8mm_H2.5mm_FlatTop" H 7650 1650 50  0001 C CNN
F 3 "" H 7650 1650 50  0000 C CNN
	1    7650 1650
	0    -1   1    0   
$EndComp
$Comp
L Battery-RESCUE-Си_хро__р BT1
U 1 1 58CC077C
P 2200 900
F 0 "BT1" H 2300 950 50  0000 L CNN
F 1 "Battery" H 2300 850 50  0000 L CNN
F 2 "lib:bornier2" V 2200 940 50  0001 C CNN
F 3 "" V 2200 940 50  0000 C CNN
	1    2200 900 
	1    0    0    -1  
$EndComp
$Comp
L R R11
U 1 1 58CC27BB
P 7400 2400
F 0 "R11" V 7350 2200 50  0000 C CNN
F 1 "150" V 7400 2400 50  0000 C CNN
F 2 "Resistors_SMD:R_0805" V 7330 2400 50  0001 C CNN
F 3 "" H 7400 2400 50  0001 C CNN
	1    7400 2400
	0    1    1    0   
$EndComp
$Comp
L R R12
U 1 1 58CC2868
P 7400 2500
F 0 "R12" V 7350 2300 50  0000 C CNN
F 1 "150" V 7400 2500 50  0000 C CNN
F 2 "Resistors_SMD:R_0805" V 7330 2500 50  0001 C CNN
F 3 "" H 7400 2500 50  0001 C CNN
	1    7400 2500
	0    1    1    0   
$EndComp
$Comp
L R R13
U 1 1 58CC28BB
P 7400 2600
F 0 "R13" V 7350 2400 50  0000 C CNN
F 1 "150" V 7400 2600 50  0000 C CNN
F 2 "Resistors_SMD:R_0805" V 7330 2600 50  0001 C CNN
F 3 "" H 7400 2600 50  0001 C CNN
	1    7400 2600
	0    1    1    0   
$EndComp
$Comp
L R R14
U 1 1 58CC2927
P 7400 2700
F 0 "R14" V 7350 2500 50  0000 C CNN
F 1 "150" V 7400 2700 50  0000 C CNN
F 2 "Resistors_SMD:R_0805" V 7330 2700 50  0001 C CNN
F 3 "" H 7400 2700 50  0001 C CNN
	1    7400 2700
	0    1    1    0   
$EndComp
$Comp
L R R15
U 1 1 58CC2997
P 7400 2800
F 0 "R15" V 7350 2600 50  0000 C CNN
F 1 "150" V 7400 2800 50  0000 C CNN
F 2 "Resistors_SMD:R_0805" V 7330 2800 50  0001 C CNN
F 3 "" H 7400 2800 50  0001 C CNN
	1    7400 2800
	0    1    1    0   
$EndComp
$Comp
L R R16
U 1 1 58CC29EF
P 7400 2900
F 0 "R16" V 7350 2700 50  0000 C CNN
F 1 "150" V 7400 2900 50  0000 C CNN
F 2 "Resistors_SMD:R_0805" V 7330 2900 50  0001 C CNN
F 3 "" H 7400 2900 50  0001 C CNN
	1    7400 2900
	0    1    1    0   
$EndComp
$Comp
L R R17
U 1 1 58CC2A4E
P 7400 3000
F 0 "R17" V 7350 2800 50  0000 C CNN
F 1 "150" V 7400 3000 50  0000 C CNN
F 2 "Resistors_SMD:R_0805" V 7330 3000 50  0001 C CNN
F 3 "" H 7400 3000 50  0001 C CNN
	1    7400 3000
	0    1    1    0   
$EndComp
Wire Wire Line
	7050 2400 7250 2400
Wire Wire Line
	7050 2500 7250 2500
Wire Wire Line
	7050 2600 7250 2600
Wire Wire Line
	7050 2700 7250 2700
Wire Wire Line
	7050 2800 7250 2800
Wire Wire Line
	7050 2900 7250 2900
Wire Wire Line
	7050 3000 7250 3000
$Comp
L SW_Push SW2
U 1 1 58CC6372
P 1900 3650
F 0 "SW2" H 1950 3750 50  0000 L CNN
F 1 "SW_Push" H 1900 3590 50  0000 C CNN
F 2 "lib:bornier2" H 1900 3850 50  0001 C CNN
F 3 "" H 1900 3850 50  0001 C CNN
	1    1900 3650
	0    -1   -1   0   
$EndComp
$Comp
L SW_Push SW1
U 1 1 58CC65A3
P 1100 3750
F 0 "SW1" H 1150 3850 50  0000 L CNN
F 1 "SW_Push" H 1100 3650 50  0000 C CNN
F 2 "lib:bornier2" H 1100 3950 50  0001 C CNN
F 3 "" H 1100 3950 50  0001 C CNN
	1    1100 3750
	0    -1   -1   0   
$EndComp
$Comp
L SW_SPST SW3
U 1 1 58CC66E5
P 2500 650
F 0 "SW3" H 2500 775 50  0000 C CNN
F 1 "SW_SPST" H 2500 550 50  0000 C CNN
F 2 "lib:bornier2" H 2500 650 50  0001 C CNN
F 3 "" H 2500 650 50  0001 C CNN
	1    2500 650 
	1    0    0    -1  
$EndComp
$Comp
L GND #PWR01
U 1 1 58CC6862
P 2200 1150
F 0 "#PWR01" H 2200 900 50  0001 C CNN
F 1 "GND" H 2200 1000 50  0000 C CNN
F 2 "" H 2200 1150 50  0001 C CNN
F 3 "" H 2200 1150 50  0001 C CNN
	1    2200 1150
	1    0    0    -1  
$EndComp
$Comp
L +3V3 #PWR02
U 1 1 58CC6902
P 3250 600
F 0 "#PWR02" H 3250 450 50  0001 C CNN
F 1 "+3V3" H 3250 740 50  0000 C CNN
F 2 "" H 3250 600 50  0001 C CNN
F 3 "" H 3250 600 50  0001 C CNN
	1    3250 600 
	1    0    0    -1  
$EndComp
$Comp
L +3V3 #PWR03
U 1 1 58CC8D41
P 9900 3450
F 0 "#PWR03" H 9900 3300 50  0001 C CNN
F 1 "+3V3" H 9850 3600 50  0000 C CNN
F 2 "" H 9900 3450 50  0001 C CNN
F 3 "" H 9900 3450 50  0001 C CNN
	1    9900 3450
	1    0    0    -1  
$EndComp
Wire Wire Line
	9650 4000 9650 3800
$Comp
L R R21
U 1 1 58CBFF0B
P 9900 3700
F 0 "R21" V 9980 3700 50  0000 C CNN
F 1 "47к" V 9900 3700 50  0000 C CNN
F 2 "Resistors_SMD:R_0805" V 9830 3700 50  0001 C CNN
F 3 "" H 9900 3700 50  0000 C CNN
	1    9900 3700
	1    0    0    -1  
$EndComp
$Comp
L R R22
U 1 1 58CBFEA2
P 10600 4350
F 0 "R22" V 10500 4350 50  0000 C CNN
F 1 "47к" V 10600 4350 50  0000 C CNN
F 2 "Resistors_SMD:R_0805" V 10530 4350 50  0001 C CNN
F 3 "" H 10600 4350 50  0000 C CNN
	1    10600 4350
	-1   0    0    1   
$EndComp
$Comp
L +3V3 #PWR04
U 1 1 58CC9079
P 10600 4100
F 0 "#PWR04" H 10600 3950 50  0001 C CNN
F 1 "+3V3" H 10600 4250 50  0000 C CNN
F 2 "" H 10600 4100 50  0001 C CNN
F 3 "" H 10600 4100 50  0001 C CNN
	1    10600 4100
	1    0    0    -1  
$EndComp
$Comp
L R R23
U 1 1 58CBFE1B
P 11100 3550
F 0 "R23" V 11180 3550 50  0000 C CNN
F 1 "47к" V 11100 3550 50  0000 C CNN
F 2 "Resistors_SMD:R_0805" V 11030 3550 50  0001 C CNN
F 3 "" H 11100 3550 50  0000 C CNN
	1    11100 3550
	1    0    0    -1  
$EndComp
$Comp
L +3V3 #PWR05
U 1 1 58CC8DC5
P 11100 3300
F 0 "#PWR05" H 11100 3150 50  0001 C CNN
F 1 "+3V3" H 11100 3450 50  0000 C CNN
F 2 "" H 11100 3300 50  0001 C CNN
F 3 "" H 11100 3300 50  0001 C CNN
	1    11100 3300
	1    0    0    -1  
$EndComp
Wire Wire Line
	10300 4750 10300 4450
Wire Wire Line
	10800 3950 10800 3650
Wire Wire Line
	2700 3700 2700 4150
Text GLabel 2400 4700 3    60   Input ~ 0
Enable_indicator_1
Text GLabel 2550 4700 3    60   Input ~ 0
Enable_indicator_2
Text GLabel 2700 4700 3    60   Input ~ 0
Enable_indicator_3
Wire Wire Line
	2400 4450 2400 4700
Wire Wire Line
	2550 4450 2550 4700
Text GLabel 9650 4000 3    60   Input ~ 0
Enable_indicator_1
Text GLabel 10300 4750 3    60   Input ~ 0
Enable_indicator_2
Text GLabel 10800 3950 3    60   Input ~ 0
Enable_indicator_3
Wire Wire Line
	7650 1500 7650 1400
Wire Wire Line
	7750 1350 7750 1400
Wire Wire Line
	7650 1800 7650 1900
$Comp
L GND #PWR07
U 1 1 58CCC583
P 4900 4500
F 0 "#PWR07" H 4900 4250 50  0001 C CNN
F 1 "GND" H 4900 4350 50  0000 C CNN
F 2 "" H 4900 4500 50  0001 C CNN
F 3 "" H 4900 4500 50  0001 C CNN
	1    4900 4500
	1    0    0    -1  
$EndComp
Wire Wire Line
	4900 4400 4900 4500
$Comp
L GND #PWR08
U 1 1 58CCC7CE
P 2050 3950
F 0 "#PWR08" H 2050 3700 50  0001 C CNN
F 1 "GND" H 2050 3800 50  0000 C CNN
F 2 "" H 2050 3950 50  0001 C CNN
F 3 "" H 2050 3950 50  0001 C CNN
	1    2050 3950
	1    0    0    -1  
$EndComp
$Comp
L C C1
U 1 1 58CCCB52
P 1400 3700
F 0 "C1" H 1300 3800 50  0000 L CNN
F 1 "0,1мк" V 1550 3650 50  0000 L CNN
F 2 "Capacitors_SMD:C_0805" H 1438 3550 50  0001 C CNN
F 3 "" H 1400 3700 50  0001 C CNN
	1    1400 3700
	1    0    0    -1  
$EndComp
$Comp
L C C2
U 1 1 58CCCBB5
P 2200 3600
F 0 "C2" H 2100 3700 50  0000 L CNN
F 1 "0,1мк" V 2350 3550 50  0000 L CNN
F 2 "Capacitors_SMD:C_0805" H 2238 3450 50  0001 C CNN
F 3 "" H 2200 3600 50  0001 C CNN
	1    2200 3600
	1    0    0    -1  
$EndComp
$Comp
L +3V3 #PWR010
U 1 1 58CCF171
P 4400 600
F 0 "#PWR010" H 4400 450 50  0001 C CNN
F 1 "+3V3" H 4400 740 50  0000 C CNN
F 2 "" H 4400 600 50  0001 C CNN
F 3 "" H 4400 600 50  0001 C CNN
	1    4400 600 
	1    0    0    -1  
$EndComp
$Comp
L C C4
U 1 1 58CCF2ED
P 4400 850
F 0 "C4" H 4425 950 50  0000 L CNN
F 1 "0,1мк" V 4450 600 50  0000 L CNN
F 2 "Capacitors_SMD:C_0805" H 4438 700 50  0001 C CNN
F 3 "" H 4400 850 50  0001 C CNN
	1    4400 850 
	-1   0    0    1   
$EndComp
$Comp
L C C3
U 1 1 58CCF354
P 4200 850
F 0 "C3" H 4225 950 50  0000 L CNN
F 1 "0,1мк" V 4250 600 50  0000 L CNN
F 2 "Capacitors_SMD:C_0805" H 4238 700 50  0001 C CNN
F 3 "" H 4200 850 50  0001 C CNN
	1    4200 850 
	-1   0    0    1   
$EndComp
$Comp
L GND #PWR011
U 1 1 58CCF794
P 4400 1150
F 0 "#PWR011" H 4400 900 50  0001 C CNN
F 1 "GND" H 4400 1000 50  0000 C CNN
F 2 "" H 4400 1150 50  0001 C CNN
F 3 "" H 4400 1150 50  0001 C CNN
	1    4400 1150
	1    0    0    -1  
$EndComp
Wire Wire Line
	4200 700  4200 650 
Wire Wire Line
	4400 600  4400 700 
Wire Wire Line
	4200 1000 4200 1050
Wire Wire Line
	4200 1050 4600 1050
Wire Wire Line
	4400 1000 4400 1150
$Comp
L PWR_FLAG #FLG012
U 1 1 58CD2AE4
P 2300 6850
F 0 "#FLG012" H 2300 6925 50  0001 C CNN
F 1 "PWR_FLAG" H 2300 7000 50  0000 C CNN
F 2 "" H 2300 6850 50  0001 C CNN
F 3 "" H 2300 6850 50  0001 C CNN
	1    2300 6850
	1    0    0    -1  
$EndComp
$Comp
L PWR_FLAG #FLG013
U 1 1 58CD2C9A
P 2550 6850
F 0 "#FLG013" H 2550 6925 50  0001 C CNN
F 1 "PWR_FLAG" H 2550 7000 50  0000 C CNN
F 2 "" H 2550 6850 50  0001 C CNN
F 3 "" H 2550 6850 50  0001 C CNN
	1    2550 6850
	1    0    0    -1  
$EndComp
$Comp
L GND #PWR014
U 1 1 58CD2D46
P 2300 7050
F 0 "#PWR014" H 2300 6800 50  0001 C CNN
F 1 "GND" H 2300 6900 50  0000 C CNN
F 2 "" H 2300 7050 50  0001 C CNN
F 3 "" H 2300 7050 50  0001 C CNN
	1    2300 7050
	1    0    0    -1  
$EndComp
$Comp
L +3V3 #PWR015
U 1 1 58CD2DA6
P 2550 7050
F 0 "#PWR015" H 2550 6900 50  0001 C CNN
F 1 "+3V3" H 2550 7190 50  0000 C CNN
F 2 "" H 2550 7050 50  0001 C CNN
F 3 "" H 2550 7050 50  0001 C CNN
	1    2550 7050
	-1   0    0    1   
$EndComp
Wire Wire Line
	2300 6850 2300 7050
Wire Wire Line
	2550 6850 2550 7050
$Comp
L GND #PWR016
U 1 1 58CD4151
P 2700 3000
F 0 "#PWR016" H 2700 2750 50  0001 C CNN
F 1 "GND" H 2700 2850 50  0000 C CNN
F 2 "" H 2700 3000 50  0001 C CNN
F 3 "" H 2700 3000 50  0001 C CNN
	1    2700 3000
	1    0    0    -1  
$EndComp
$Comp
L STM32F030K6Tx U1
U 1 1 58CD05D8
P 4950 3200
F 0 "U1" H 2950 4325 50  0000 L BNN
F 1 "STM32F030K6Tx" H 6950 4325 50  0000 R BNN
F 2 "Housings_QFP:LQFP-32_7x7mm_Pitch0.8mm" H 6950 4275 50  0001 R TNN
F 3 "" H 4950 3200 50  0000 C CNN
	1    4950 3200
	1    0    0    -1  
$EndComp
Wire Wire Line
	2700 4450 2700 4700
Text GLabel 7250 3400 2    60   Input ~ 0
UART_RX
Text GLabel 7250 3300 2    60   Input ~ 0
UART_TX
Wire Wire Line
	7050 3300 7250 3300
Text GLabel 7200 3700 2    60   Input ~ 0
SWDIO
Text GLabel 7200 3800 2    60   Input ~ 0
SWCLK
Wire Wire Line
	7050 3700 7200 3700
Wire Wire Line
	7050 3800 7200 3800
Wire Wire Line
	2400 4150 2400 3500
Wire Wire Line
	2400 3500 2850 3500
Wire Wire Line
	2550 4150 2550 3600
Wire Wire Line
	2550 3600 2850 3600
Wire Wire Line
	2700 3700 2850 3700
Wire Wire Line
	4200 650  4600 650 
$Comp
L +3V3 #PWR017
U 1 1 58CD4A81
P 4950 1800
F 0 "#PWR017" H 4950 1650 50  0001 C CNN
F 1 "+3V3" H 4950 1940 50  0000 C CNN
F 2 "" H 4950 1800 50  0000 C CNN
F 3 "" H 4950 1800 50  0000 C CNN
	1    4950 1800
	1    0    0    -1  
$EndComp
Wire Wire Line
	4850 2000 4850 1900
Wire Wire Line
	4850 1900 5050 1900
Wire Wire Line
	5050 1900 5050 2000
Wire Wire Line
	4950 1800 4950 2000
Connection ~ 4950 1900
$Comp
L C C5
U 1 1 58CD4FCA
P 4600 850
F 0 "C5" H 4500 750 50  0000 L CNN
F 1 "0,1мк" V 4550 900 50  0000 L CNN
F 2 "Capacitors_SMD:C_0805" H 4638 700 50  0001 C CNN
F 3 "" H 4600 850 50  0000 C CNN
	1    4600 850 
	1    0    0    -1  
$EndComp
Wire Wire Line
	4600 650  4600 700 
Connection ~ 4400 650 
Wire Wire Line
	4600 1050 4600 1000
Connection ~ 4400 1050
Wire Wire Line
	4850 4300 4850 4400
Wire Wire Line
	4850 4400 4950 4400
Wire Wire Line
	4950 4400 4950 4300
Connection ~ 4900 4400
NoConn ~ 2850 3800
NoConn ~ 2850 3900
NoConn ~ 2850 3000
NoConn ~ 2850 3100
NoConn ~ 7050 3900
$Comp
L R R9
U 1 1 58CD76C7
P 2700 2800
F 0 "R9" V 2780 2800 50  0000 C CNN
F 1 "47к" V 2700 2800 50  0000 C CNN
F 2 "Resistors_SMD:R_0805" V 2630 2800 50  0001 C CNN
F 3 "" H 2700 2800 50  0000 C CNN
	1    2700 2800
	1    0    0    -1  
$EndComp
Wire Wire Line
	2700 2950 2700 3000
Wire Wire Line
	2700 2650 2700 2600
Wire Wire Line
	2600 2600 2850 2600
Text GLabel 2600 2400 0    60   Input ~ 0
NRST
Connection ~ 2700 2600
Wire Wire Line
	2850 2400 2600 2400
Text GLabel 2600 2600 0    60   Input ~ 0
BOOT0
$Comp
L CONN_01X08 P1
U 1 1 58CD8E88
P 5150 750
F 0 "P1" H 5150 1200 50  0000 C CNN
F 1 "CONN_01X08" V 5250 750 50  0000 C CNN
F 2 "Connect:IDC_Header_Straight_8pins" H 5150 750 50  0001 C CNN
F 3 "" H 5150 750 50  0000 C CNN
	1    5150 750 
	-1   0    0    1   
$EndComp
Wire Wire Line
	2300 650  2200 650 
Text GLabel 5550 400  2    60   Input ~ 0
NRST
Text GLabel 5550 500  2    60   Input ~ 0
UART_TX
Text GLabel 5550 600  2    60   Input ~ 0
UART_RX
Text GLabel 5550 700  2    60   Input ~ 0
SWDIO
Text GLabel 5550 800  2    60   Input ~ 0
SWCLK
Text GLabel 5550 900  2    60   Input ~ 0
BOOT0
Wire Wire Line
	5350 400  5550 400 
Wire Wire Line
	5350 500  5550 500 
Wire Wire Line
	5550 600  5350 600 
Wire Wire Line
	5550 700  5350 700 
Wire Wire Line
	5550 800  5350 800 
Wire Wire Line
	5550 900  5350 900 
$Comp
L GND #PWR018
U 1 1 58CDB6C0
P 5600 1150
F 0 "#PWR018" H 5600 900 50  0001 C CNN
F 1 "GND" H 5600 1000 50  0000 C CNN
F 2 "" H 5600 1150 50  0000 C CNN
F 3 "" H 5600 1150 50  0000 C CNN
	1    5600 1150
	1    0    0    -1  
$EndComp
Wire Wire Line
	5350 1000 5600 1000
$Comp
L +3V3 #PWR019
U 1 1 58CDB838
P 5450 1150
F 0 "#PWR019" H 5450 1000 50  0001 C CNN
F 1 "+3V3" H 5500 1300 50  0000 C CNN
F 2 "" H 5450 1150 50  0000 C CNN
F 3 "" H 5450 1150 50  0000 C CNN
	1    5450 1150
	-1   0    0    1   
$EndComp
Wire Wire Line
	5350 1100 5450 1100
Wire Wire Line
	5450 1100 5450 1150
Wire Wire Line
	5600 1000 5600 1150
$Comp
L GND #PWR020
U 1 1 58CDCC00
P 3000 1150
F 0 "#PWR020" H 3000 900 50  0001 C CNN
F 1 "GND" H 3000 1000 50  0000 C CNN
F 2 "" H 3000 1150 50  0001 C CNN
F 3 "" H 3000 1150 50  0001 C CNN
	1    3000 1150
	1    0    0    -1  
$EndComp
Wire Wire Line
	2700 650  2800 650 
Wire Wire Line
	3200 650  3250 650 
Wire Wire Line
	3250 650  3250 600 
Connection ~ 9650 3900
Wire Wire Line
	10500 4150 10600 4150
$Comp
L Q_PMOS_GSD Q2
U 1 1 58CF5BF1
P 9650 3600
F 0 "Q2" V 9550 3750 50  0000 R CNN
F 1 "IRLML6401TRPbF" V 9850 4050 50  0000 R CNN
F 2 "TO_SOT_Packages_SMD:SOT-23" H 9850 3700 50  0001 C CNN
F 3 "" H 9650 3600 50  0000 C CNN
	1    9650 3600
	0    -1   -1   0   
$EndComp
$Comp
L Q_PMOS_GSD Q3
U 1 1 58CF5E3F
P 10300 4250
F 0 "Q3" V 10250 4150 50  0000 R CNN
F 1 "IRLML6401TRPbF" V 10500 4700 50  0000 R CNN
F 2 "TO_SOT_Packages_SMD:SOT-23" H 10500 4350 50  0001 C CNN
F 3 "" H 10300 4250 50  0000 C CNN
	1    10300 4250
	0    -1   -1   0   
$EndComp
$Comp
L Q_PMOS_GSD Q4
U 1 1 58CF60A5
P 10800 3450
F 0 "Q4" V 10700 3350 50  0000 R CNN
F 1 "IRLML6401TRPbF" V 11000 3800 50  0000 R CNN
F 2 "TO_SOT_Packages_SMD:SOT-23" H 11000 3550 50  0001 C CNN
F 3 "" H 10800 3450 50  0000 C CNN
	1    10800 3450
	0    -1   -1   0   
$EndComp
$Comp
L Q_PMOS_GSD Q1
U 1 1 58CF6347
P 3000 750
F 0 "Q1" V 2900 850 50  0000 R CNN
F 1 "IRLML6401TRPbF" V 2950 650 50  0000 R CNN
F 2 "TO_SOT_Packages_SMD:SOT-23" H 3200 850 50  0001 C CNN
F 3 "" H 3000 750 50  0000 C CNN
	1    3000 750 
	0    -1   -1   0   
$EndComp
Wire Wire Line
	2200 1100 2200 1150
Wire Wire Line
	2200 650  2200 700 
Wire Wire Line
	3000 950  3000 1150
Wire Wire Line
	7850 1400 7850 1500
Wire Wire Line
	7650 1400 7850 1400
Connection ~ 7750 1400
Wire Wire Line
	7850 1800 7850 1900
$Comp
L Kingbright_Bx56-12 HL1
U 1 1 58D0257C
P 9100 1400
F 0 "HL1" H 8300 2100 60  0000 C CNN
F 1 "BA56-12SYKWA" H 9600 2100 60  0000 C CNN
F 2 "lib:Kingbright_Bx56-12" H 9400 1400 60  0001 C CNN
F 3 "" H 9400 1400 60  0000 C CNN
	1    9100 1400
	1    0    0    -1  
$EndComp
NoConn ~ 9800 2300
$Comp
L R R18
U 1 1 58D0556C
P 7400 3100
F 0 "R18" V 7350 2900 50  0000 C CNN
F 1 "150" V 7400 3100 50  0000 C CNN
F 2 "Resistors_SMD:R_0805" V 7330 3100 50  0001 C CNN
F 3 "" H 7400 3100 50  0001 C CNN
	1    7400 3100
	0    1    1    0   
$EndComp
Wire Wire Line
	7050 3100 7250 3100
Wire Wire Line
	9900 3450 9900 3550
Wire Wire Line
	9850 3500 9900 3500
Connection ~ 9900 3500
Wire Wire Line
	10600 4100 10600 4200
Connection ~ 10600 4150
Wire Wire Line
	11100 3300 11100 3400
Wire Wire Line
	11000 3350 11100 3350
Connection ~ 11100 3350
Wire Wire Line
	11100 3700 11100 3800
Wire Wire Line
	11100 3800 10800 3800
Connection ~ 10800 3800
Wire Wire Line
	10600 4500 10600 4600
Wire Wire Line
	10600 4600 10300 4600
Connection ~ 10300 4600
Wire Wire Line
	9650 3900 9900 3900
Wire Wire Line
	9900 3900 9900 3850
Wire Wire Line
	9450 3500 9400 3500
Wire Wire Line
	9400 3500 9400 2300
Wire Wire Line
	10100 4150 10100 3200
Wire Wire Line
	10100 3200 9500 3200
Wire Wire Line
	9500 3200 9500 2300
Wire Wire Line
	10600 3350 10200 3350
Wire Wire Line
	10200 3350 10200 3100
Wire Wire Line
	10200 3100 9600 3100
Wire Wire Line
	9600 3100 9600 2300
Wire Wire Line
	9200 2300 9200 2900
Wire Wire Line
	9200 2900 7550 2900
Wire Wire Line
	8800 2300 8800 3000
Wire Wire Line
	8900 2300 8900 3100
Wire Wire Line
	8600 2300 8600 2400
Wire Wire Line
	8600 2400 7550 2400
Wire Wire Line
	9000 2300 9000 2500
Wire Wire Line
	9000 2500 7550 2500
Wire Wire Line
	8500 2300 8500 2600
Wire Wire Line
	8500 2600 7550 2600
Wire Wire Line
	8900 3100 7550 3100
Wire Wire Line
	7550 2700 9100 2700
Wire Wire Line
	9100 2700 9100 2300
Wire Wire Line
	8800 3000 7550 3000
Wire Wire Line
	7550 2800 8700 2800
Wire Wire Line
	8700 2800 8700 2300
Wire Wire Line
	7050 3200 7650 3200
Wire Wire Line
	7650 3200 7650 2200
Wire Wire Line
	7050 3500 7850 3500
Wire Wire Line
	7850 3500 7850 2200
Wire Wire Line
	7050 3400 7250 3400
Wire Wire Line
	7050 3600 7150 3600
Wire Wire Line
	7150 3600 7150 3300
Connection ~ 7150 3300
$Comp
L GND #PWR?
U 1 1 58D02155
P 7750 1350
F 0 "#PWR?" H 7750 1100 50  0001 C CNN
F 1 "GND" H 7750 1200 50  0000 C CNN
F 2 "" H 7750 1350 50  0001 C CNN
F 3 "" H 7750 1350 50  0001 C CNN
	1    7750 1350
	-1   0    0    1   
$EndComp
Wire Wire Line
	1900 3300 1900 3450
Wire Wire Line
	2200 3300 2200 3450
Wire Wire Line
	1900 3850 1900 3900
Wire Wire Line
	1900 3900 2200 3900
Wire Wire Line
	2200 3900 2200 3750
Wire Wire Line
	2050 3950 2050 3900
Connection ~ 2050 3900
$Comp
L GND #PWR?
U 1 1 58D02E0A
P 1250 4050
F 0 "#PWR?" H 1250 3800 50  0001 C CNN
F 1 "GND" H 1250 3900 50  0000 C CNN
F 2 "" H 1250 4050 50  0001 C CNN
F 3 "" H 1250 4050 50  0001 C CNN
	1    1250 4050
	1    0    0    -1  
$EndComp
Wire Wire Line
	1100 3400 1100 3550
Wire Wire Line
	1400 3400 1400 3550
Wire Wire Line
	1100 3950 1100 4000
Wire Wire Line
	1100 4000 1400 4000
Wire Wire Line
	1400 4000 1400 3850
Wire Wire Line
	1250 4050 1250 4000
Connection ~ 1250 4000
Wire Wire Line
	2850 3300 1900 3300
Connection ~ 2200 3300
Wire Wire Line
	2850 3400 1100 3400
Connection ~ 1400 3400
$EndSCHEMATC
